\relax 
\@writefile{toc}{\contentsline {section}{\numberline {1}Affine geometry}{1}}
\@writefile{toc}{\contentsline {subsection}{\numberline {1.1}Affine spaces overview}{1}}
\@writefile{toc}{\contentsline {subsection}{\numberline {1.2}Cartesian coordinates}{1}}
\@writefile{toc}{\contentsline {section}{\numberline {2}Lab}{1}}
